{
  "statics": {
    "navigationItems": [
      {
        "label": "Dashboard",
        "url": "/dashboard",
        "index": 0
      },
      {
        "label": "Offerings",
        "url": "/offerings",
        "index": 1
      },
      {
        "label": "About",
        "url": "/about",
        "index": 2
      }
    ]
  }
}
